%!PS-Adobe-3.0
%%Title: hw2.cpp
%%For: bezzo
%%Creator: VIM - Vi IMproved 8.0 (2016 Sep 12)
%%CreationDate: Tue Oct  8 22:37:06 2019
%%DocumentData: Clean8Bit
%%Orientation: Portrait
%%Pages: (atend)
%%PageOrder: Ascend
%%BoundingBox: 59 49 564 800
%%DocumentMedia: A4 595 842 0 () ()
%%DocumentNeededResources: font Courier
%%+ font Courier-Bold
%%+ font Courier-Oblique
%%+ font Courier-BoldOblique
%%DocumentSuppliedResources: procset VIM-Prolog 1.4 1
%%+ encoding VIM-latin1 1.0 0
%%Requirements: duplex collate color
%%EndComments
%%BeginDefaults
%%PageResources: font Courier
%%+ font Courier-Bold
%%+ font Courier-Oblique
%%+ font Courier-BoldOblique
%%PageMedia: A4
%%EndDefaults
%%BeginProlog
%%BeginResource: procset VIM-Prolog
%%BeginDocument: /usr/share/vim/vim80/print/prolog.ps
%!PS-Adobe-3.0 Resource-ProcSet
%%Title: VIM-Prolog
%%Version: 1.4 1
%%EndComments
% Editing of this file is NOT RECOMMENDED.  You run a very good risk of causing
% all PostScript printing from VIM failing if you do.  PostScript is not called
% a write-only language for nothing!
/packedarray where not{userdict begin/setpacking/pop load def/currentpacking
false def end}{pop}ifelse/CP currentpacking def true setpacking
/bd{bind def}bind def/ld{load def}bd/ed{exch def}bd/d/def ld
/db{dict begin}bd/cde{currentdict end}bd
/T true d/F false d
/SO null d/sv{/SO save d}bd/re{SO restore}bd
/L2 systemdict/languagelevel 2 copy known{get exec}{pop pop 1}ifelse 2 ge d
/m/moveto ld/s/show ld /ms{m s}bd /g/setgray ld/r/setrgbcolor ld/sp{showpage}bd
/gs/gsave ld/gr/grestore ld/cp/currentpoint ld
/ul{gs UW setlinewidth cp UO add 2 copy newpath m 3 1 roll add exch lineto
stroke gr}bd
/bg{gs r cp BO add 4 -2 roll rectfill gr}bd
/sl{90 rotate 0 exch translate}bd
L2{
/sspd{mark exch{setpagedevice}stopped cleartomark}bd
/nc{1 db/NumCopies ed cde sspd}bd
/sps{3 db/Orientation ed[3 1 roll]/PageSize ed/ImagingBBox null d cde sspd}bd
/dt{2 db/Tumble ed/Duplex ed cde sspd}bd
/c{1 db/Collate ed cde sspd}bd
}{
/nc{/#copies ed}bd
/sps{statusdict/setpage get exec}bd
/dt{statusdict/settumble 2 copy known{get exec}{pop pop pop}ifelse
statusdict/setduplexmode 2 copy known{get exec}{pop pop pop}ifelse}bd
/c{pop}bd
}ifelse
/ffs{findfont exch scalefont d}bd/sf{setfont}bd
/ref{1 db findfont dup maxlength dict/NFD ed{exch dup/FID ne{exch NFD 3 1 roll
put}{pop pop}ifelse}forall/Encoding findresource dup length 256 eq{NFD/Encoding
3 -1 roll put}{pop}ifelse NFD dup/FontType get 3 ne{/CharStrings}{/CharProcs}
ifelse 2 copy known{2 copy get dup maxlength dict copy[/questiondown/space]{2
copy known{2 copy get 2 index/.notdef 3 -1 roll put pop exit}if pop}forall put
}{pop pop}ifelse dup NFD/FontName 3 -1 roll put NFD definefont pop end}bd
CP setpacking
(\004)cvn{}bd
% vim:ff=unix:
%%EOF
%%EndDocument
%%EndResource
%%BeginResource: encoding VIM-latin1
%%BeginDocument: /usr/share/vim/vim80/print/latin1.ps
%!PS-Adobe-3.0 Resource-Encoding
%%Title: VIM-latin1
%%Version: 1.0 0
%%EndComments
/VIM-latin1[
/.notdef /.notdef /.notdef /.notdef /.notdef /.notdef /.notdef /.notdef
/.notdef /.notdef /.notdef /.notdef /.notdef /.notdef /.notdef /.notdef
/.notdef /.notdef /.notdef /.notdef /.notdef /.notdef /.notdef /.notdef
/.notdef /.notdef /.notdef /.notdef /.notdef /.notdef /.notdef /.notdef
/space /exclam /quotedbl /numbersign /dollar /percent /ampersand /quotesingle
/parenleft /parenright /asterisk /plus /comma /minus /period /slash
/zero /one /two /three /four /five /six /seven
/eight /nine /colon /semicolon /less /equal /greater /question
/at /A /B /C /D /E /F /G
/H /I /J /K /L /M /N /O
/P /Q /R /S /T /U /V /W
/X /Y /Z /bracketleft /backslash /bracketright /asciicircum /underscore
/grave /a /b /c /d /e /f /g
/h /i /j /k /l /m /n /o
/p /q /r /s /t /u /v /w
/x /y /z /braceleft /bar /braceright /asciitilde /.notdef
/.notdef /.notdef /.notdef /.notdef /.notdef /.notdef /.notdef /.notdef
/.notdef /.notdef /.notdef /.notdef /.notdef /.notdef /.notdef /.notdef
/.notdef /.notdef /.notdef /.notdef /.notdef /.notdef /.notdef /.notdef
/.notdef /.notdef /.notdef /.notdef /.notdef /.notdef /.notdef /.notdef
/space /exclamdown /cent /sterling /currency /yen /brokenbar /section
/dieresis /copyright /ordfeminine /guillemotleft /logicalnot /hyphen /registered /macron
/degree /plusminus /twosuperior /threesuperior /acute /mu /paragraph /periodcentered
/cedilla /onesuperior /ordmasculine /guillemotright /onequarter /onehalf /threequarters /questiondown
/Agrave /Aacute /Acircumflex /Atilde /Adieresis /Aring /AE /Ccedilla
/Egrave /Eacute /Ecircumflex /Edieresis /Igrave /Iacute /Icircumflex /Idieresis
/Eth /Ntilde /Ograve /Oacute /Ocircumflex /Otilde /Odieresis /multiply
/Oslash /Ugrave /Uacute /Ucircumflex /Udieresis /Yacute /Thorn /germandbls
/agrave /aacute /acircumflex /atilde /adieresis /aring /ae /ccedilla
/egrave /eacute /ecircumflex /edieresis /igrave /iacute /icircumflex /idieresis
/eth /ntilde /ograve /oacute /ocircumflex /otilde /odieresis /divide
/oslash /ugrave /uacute /ucircumflex /udieresis /yacute /thorn /ydieresis]
/Encoding defineresource pop
% vim:ff=unix:
%%EOF
%%EndDocument
%%EndResource
%%EndProlog
%%BeginSetup
595 842 0 sps
1 nc
T F dt
T c
%%IncludeResource: font Courier
/_F0 /VIM-latin1 /Courier ref
/F0 10 /_F0 ffs
%%IncludeResource: font Courier-Bold
/_F1 /VIM-latin1 /Courier-Bold ref
/F1 10 /_F1 ffs
%%IncludeResource: font Courier-Oblique
/_F2 /VIM-latin1 /Courier-Oblique ref
/F2 10 /_F2 ffs
%%IncludeResource: font Courier-BoldOblique
/_F3 /VIM-latin1 /Courier-BoldOblique ref
/F3 10 /_F3 ffs
/UO -1 d
/UW 0.5 d
/BO -2.5 d
%%EndSetup
%%Page: 1 1
%%BeginPageSetup
sv
0 g
F0 sf
%%EndPageSetup
F1 sf
(hw2.cpp                                                                       Page 1)59.5 792.4 ms
F0 sf
0 0 0.376 r
(#include )59.5 772.4 ms
0.498 0.125 0.498 r
(<iostream>)s
0 0 0.376 r
(#include )59.5 762.4 ms
0.498 0.125 0.498 r
(<vector>)s
0 g
(std::vector<)59.5 742.4 ms
0.188 0.188 0.498 r
(int)s
0 g
(> pht\()s
0.498 0.125 0.498 r
(4)s
0 g
(,)s
0.498 0.125 0.498 r
(0)s
0 g
(\);)s
(std::vector<)59.5 732.4 ms
0.188 0.188 0.498 r
(int)s
0 g
(> bht\()s
0.498 0.125 0.498 r
(4)s
0 g
(,)s
0.498 0.125 0.498 r
(0)s
0 g
(\);)s
0.188 0.188 0.498 r
(int)59.5 722.4 ms
0 g
( ghr = )s
0.498 0.125 0.498 r
(0)s
0 g
(;)s
0.188 0.188 0.498 r
(void)59.5 702.4 ms
0 g
( reinitialize_globals\(\) {)s
(    bht.resize\()59.5 692.4 ms
0.498 0.125 0.498 r
(8)s
0 g
(,)s
0.498 0.125 0.498 r
(0)s
0 g
(\);)s
(    bht.assign\()59.5 682.4 ms
0.498 0.125 0.498 r
(8)s
0 g
(,)s
0.498 0.125 0.498 r
(0)s
0 g
(\);)s
(    ghr = )59.5 672.4 ms
0.498 0.125 0.498 r
(0)s
0 g
(;)s
(})59.5 662.4 ms
0.188 0.188 0.498 r
(bool)59.5 632.4 ms
0 g
( local_pred\()s
0.188 0.188 0.498 r
(int)s
0 g
( pc_end, )s
0.188 0.188 0.498 r
(bool)s
0 g
( actual\) {)s
(    )59.5 622.4 ms
0.251 0.251 0 r
(// Find prediction)s
0 g
(    )59.5 612.4 ms
0.188 0.188 0.498 r
(int)s
0 g
( pred = bht[pht[pc_end]];)s
(    )59.5 602.4 ms
0.251 0.251 0 r
(// Update bht)s
0 g
(    bht[pht[pc_end]] = actual ? ++bht[pht[pc_end]] : --bht[pht[pc_end]]; )59.5 592.4 ms
(    bht[pht[pc_end]] = \(bht[pht[pc_end]] < )59.5 582.4 ms
0.498 0.125 0.498 r
(0)s
0 g
(\) ? )s
0.498 0.125 0.498 r
(0)s
0 g
( : bht[pht[pc_end]]; )s
(    bht[pht[pc_end]] = \(bht[pht[pc_end]] > )59.5 572.4 ms
0.498 0.125 0.498 r
(3)s
0 g
(\) ? )s
0.498 0.125 0.498 r
(3)s
0 g
( : bht[pht[pc_end]]; )s
(    )59.5 562.4 ms
0.251 0.251 0 r
(// Update pht)s
0 g
(    pht[pc_end] = \(\(actual<<)59.5 552.4 ms
0.498 0.125 0.498 r
(1)s
0 g
(\)|\(pht[pc_end]>>)s
0.498 0.125 0.498 r
(1)s
0 g
(\)\);)s
(    )59.5 542.4 ms
0.251 0.251 0 r
(// Return Taken/ Not Taken)s
0 g
(    )59.5 532.4 ms
0 0.498 0.498 r
(return)s
0 g
( \(pred>>)s
0.498 0.125 0.498 r
(1)s
0 g
(\);)s
(})59.5 522.4 ms
0.188 0.188 0.498 r
(bool)59.5 502.4 ms
0 g
( global_pred\()s
0.188 0.188 0.498 r
(bool)s
0 g
( actual\) {)s
(    )59.5 492.4 ms
0.251 0.251 0 r
(// Find Prediction)s
0 g
(    )59.5 482.4 ms
0.188 0.188 0.498 r
(int)s
0 g
( pred = bht[ghr];)s
(    )59.5 472.4 ms
0.251 0.251 0 r
(// Update bht)s
0 g
(    bht[ghr] = actual ? ++bht[ghr] : --bht[ghr]; )59.5 462.4 ms
(    bht[ghr] = \(bht[ghr] < )59.5 452.4 ms
0.498 0.125 0.498 r
(0)s
0 g
(\) ? )s
0.498 0.125 0.498 r
(0)s
0 g
( : bht[ghr]; )s
(    bht[ghr] = \(bht[ghr] > )59.5 442.4 ms
0.498 0.125 0.498 r
(3)s
0 g
(\) ? )s
0.498 0.125 0.498 r
(3)s
0 g
( : bht[ghr];)s
(    )59.5 432.4 ms
0.251 0.251 0 r
(// Update ghr)s
0 g
(    ghr = \(\(actual<<)59.5 422.4 ms
0.498 0.125 0.498 r
(2)s
0 g
(\)|\(ghr>>)s
0.498 0.125 0.498 r
(1)s
0 g
(\)\);)s
(    )59.5 412.4 ms
0 0.498 0.498 r
(return)s
0 g
( \(pred>>)s
0.498 0.125 0.498 r
(1)s
0 g
(\);)s
(})59.5 402.4 ms
0.188 0.188 0.498 r
(bool)59.5 382.4 ms
0 g
( gshare_pred\()s
0.188 0.188 0.498 r
(int)s
0 g
( pc_end, )s
0.188 0.188 0.498 r
(bool)s
0 g
( actual\) {)s
(    )59.5 372.4 ms
0.251 0.251 0 r
(// Find Prediction)s
0 g
(    )59.5 362.4 ms
0.188 0.188 0.498 r
(int)s
0 g
( pred = bht[ghr^pc_end];)s
(    )59.5 352.4 ms
0.251 0.251 0 r
(// Update bht)s
0 g
(    bht[ghr^pc_end] = actual ? ++bht[ghr^pc_end] : --bht[ghr^pc_end]; )59.5 342.4 ms
(    bht[ghr^pc_end] = \(bht[ghr^pc_end] < )59.5 332.4 ms
0.498 0.125 0.498 r
(0)s
0 g
(\) ? )s
0.498 0.125 0.498 r
(0)s
0 g
( : bht[ghr^pc_end]; )s
(    bht[ghr^pc_end] = \(bht[ghr^pc_end] > )59.5 322.4 ms
0.498 0.125 0.498 r
(3)s
0 g
(\) ? )s
0.498 0.125 0.498 r
(3)s
0 g
( : bht[ghr^pc_end];)s
(    )59.5 312.4 ms
0.251 0.251 0 r
(// Update ghr)s
0 g
(    ghr = \(\(actual<<)59.5 302.4 ms
0.498 0.125 0.498 r
(2)s
0 g
(\)|\(ghr>>)s
0.498 0.125 0.498 r
(1)s
0 g
(\)\);)s
(    )59.5 292.4 ms
0 0.498 0.498 r
(return)s
0 g
( \(pred>>)s
0.498 0.125 0.498 r
(1)s
0 g
(\);)s
(})59.5 282.4 ms
0.188 0.188 0.498 r
(int)59.5 262.4 ms
0 g
( main\(\) {)s
(    )59.5 252.4 ms
0.188 0.188 0.498 r
(int)s
0 g
( pc_ends_2[] = {)s
0.498 0.125 0.498 r
(2)s
0 g
(, )s
0.498 0.125 0.498 r
(3)s
0 g
(, )s
0.498 0.125 0.498 r
(1)s
0 g
(, )s
0.498 0.125 0.498 r
(3)s
0 g
(, )s
0.498 0.125 0.498 r
(1)s
0 g
(, )s
0.498 0.125 0.498 r
(2)s
0 g
(, )s
0.498 0.125 0.498 r
(1)s
0 g
(, )s
0.498 0.125 0.498 r
(2)s
0 g
(, )s
0.498 0.125 0.498 r
(3)s
0 g
(};)s
(    )59.5 242.4 ms
0.188 0.188 0.498 r
(bool)s
0 g
( outcomes[] = {)s
0.498 0.125 0.498 r
(1)s
0 g
(, )s
0.498 0.125 0.498 r
(0)s
0 g
(, )s
0.498 0.125 0.498 r
(0)s
0 g
(, )s
0.498 0.125 0.498 r
(0)s
0 g
(, )s
0.498 0.125 0.498 r
(0)s
0 g
(, )s
0.498 0.125 0.498 r
(1)s
0 g
(, )s
0.498 0.125 0.498 r
(0)s
0 g
(, )s
0.498 0.125 0.498 r
(1)s
0 g
(, )s
0.498 0.125 0.498 r
(1)s
0 g
(};)s
(    )59.5 232.4 ms
(    )59.5 222.4 ms
0.251 0.251 0 r
(// PART A)s
0 g
(    )59.5 212.4 ms
0.188 0.188 0.498 r
(int)s
0 g
( correct = )s
0.498 0.125 0.498 r
(0)s
0 g
(;)s
(    for\()59.5 202.4 ms
0.188 0.188 0.498 r
(unsigned)s
0 g
( )s
0.188 0.188 0.498 r
(int)s
0 g
( i = )s
0.498 0.125 0.498 r
(0)s
0 g
(; i < )s
0.498 0.125 0.498 r
(1000000)s
0 g
(; ++i\) {)s
(        for\()59.5 192.4 ms
0.188 0.188 0.498 r
(unsigned)s
0 g
( )s
0.188 0.188 0.498 r
(int)s
0 g
( j = )s
0.498 0.125 0.498 r
(0)s
0 g
(; j < )s
0.498 0.125 0.498 r
(9)s
0 g
(; ++j\) {)s
(            correct += \(local_pred\(pc_ends_2[j], outcomes[j]\) == outcomes[j]\) ? )59.5 182.4 ms
0.498 0.125 0.498 r
(1)s
0 g
( : )s
0.498 0.125 0.498 r
(0)59.5 172.4 ms
0 g
(;)s
(        })59.5 162.4 ms
(    })59.5 152.4 ms
(    std::cout << )59.5 142.4 ms
0.498 0.125 0.498 r
("PART\(A\): LOACL PREDICTOR ACCURACY = ")s
0 g
(<< \()s
0.188 0.188 0.498 r
(double)s
0 g
(\)correct/)s
0.498 0.125 0.498 r
(9000000)s
0 g
( <<)s
0.498 0.125 0.498 r
(")59.5 132.4 ms
0.376 0 0.376 r
(\\n)s
0.498 0.125 0.498 r
(")s
0 g
(;)s
(    )59.5 112.4 ms
0.251 0.251 0 r
(// PART B)s
0 g
(    reinitialize_globals\(\);)59.5 102.4 ms
(    correct = )59.5 92.4 ms
0.498 0.125 0.498 r
(0)s
0 g
(;)s
(    for\()59.5 82.4 ms
0.188 0.188 0.498 r
(unsigned)s
0 g
( )s
0.188 0.188 0.498 r
(int)s
0 g
( i = )s
0.498 0.125 0.498 r
(0)s
0 g
(; i < )s
0.498 0.125 0.498 r
(1000000)s
0 g
(; ++i\) {)s
(        for\()59.5 72.4 ms
0.188 0.188 0.498 r
(unsigned)s
0 g
( )s
0.188 0.188 0.498 r
(int)s
0 g
( j = )s
0.498 0.125 0.498 r
(0)s
0 g
(; j < )s
0.498 0.125 0.498 r
(9)s
0 g
(; ++j\) {)s
(            correct += \(global_pred\(outcomes[j]\) == outcomes[j]\) ? )59.5 62.4 ms
0.498 0.125 0.498 r
(1)s
0 g
( : )s
0.498 0.125 0.498 r
(0)s
0 g
(;)s
(        })59.5 52.4 ms
re sp
%%PageTrailer
%%Page: 2 2
%%BeginPageSetup
sv
0 g
F0 sf
%%EndPageSetup
F1 sf
(hw2.cpp                                                                       Page 2)59.5 792.4 ms
F0 sf
(    })59.5 772.4 ms
(    std::cout << )59.5 762.4 ms
0.498 0.125 0.498 r
("PART\(B\): GLOBAL PREDICTOR ACCURACY = ")s
0 g
(<< \()s
0.188 0.188 0.498 r
(double)s
0 g
(\)correct/)s
0.498 0.125 0.498 r
(9000000)s
0 g
( <)s
(<)59.5 752.4 ms
0.498 0.125 0.498 r
(")s
0.376 0 0.376 r
(\\n)s
0.498 0.125 0.498 r
(")s
0 g
(;)s
(    )59.5 722.4 ms
0.251 0.251 0 r
(// PART C)s
0 g
(    )59.5 712.4 ms
0.188 0.188 0.498 r
(int)s
0 g
( pc_ends_3[] = {)s
0.498 0.125 0.498 r
(6)s
0 g
(, )s
0.498 0.125 0.498 r
(7)s
0 g
(, )s
0.498 0.125 0.498 r
(1)s
0 g
(, )s
0.498 0.125 0.498 r
(7)s
0 g
(, )s
0.498 0.125 0.498 r
(1)s
0 g
(, )s
0.498 0.125 0.498 r
(6)s
0 g
(, )s
0.498 0.125 0.498 r
(1)s
0 g
(, )s
0.498 0.125 0.498 r
(6)s
0 g
(, )s
0.498 0.125 0.498 r
(7)s
0 g
(};)s
(    reinitialize_globals\(\);)59.5 702.4 ms
(    correct = )59.5 692.4 ms
0.498 0.125 0.498 r
(0)s
0 g
(;)s
(    for\()59.5 682.4 ms
0.188 0.188 0.498 r
(unsigned)s
0 g
( )s
0.188 0.188 0.498 r
(int)s
0 g
( i = )s
0.498 0.125 0.498 r
(0)s
0 g
(; i < )s
0.498 0.125 0.498 r
(1000000)s
0 g
(; ++i\) {)s
(        for\()59.5 672.4 ms
0.188 0.188 0.498 r
(unsigned)s
0 g
( )s
0.188 0.188 0.498 r
(int)s
0 g
( j = )s
0.498 0.125 0.498 r
(0)s
0 g
(; j < )s
0.498 0.125 0.498 r
(9)s
0 g
(; ++j\) {)s
(            correct += \(gshare_pred\(pc_ends_3[j], outcomes[j]\) == outcomes[j]\) ? )59.5 662.4 ms
0.498 0.125 0.498 r
(1)s
0 g
( :)s
( )59.5 652.4 ms
0.498 0.125 0.498 r
(0)s
0 g
(;)s
(        })59.5 642.4 ms
(    })59.5 632.4 ms
(    std::cout << )59.5 622.4 ms
0.498 0.125 0.498 r
("PART\(C\): GSHARE PREDICTOR ACCURACY = ")s
0 g
(<< \()s
0.188 0.188 0.498 r
(double)s
0 g
(\)correct/)s
0.498 0.125 0.498 r
(9000000)s
0 g
( <)s
(<)59.5 612.4 ms
0.498 0.125 0.498 r
(")s
0.376 0 0.376 r
(\\n)s
0.498 0.125 0.498 r
(")s
0 g
(;)s
(    )59.5 602.4 ms
0 0.498 0.498 r
(return)s
0 g
( )s
0.498 0.125 0.498 r
(0)s
0 g
(;)s
(})59.5 592.4 ms
re sp
%%PageTrailer
%%Trailer
%%Pages: 2
%%EOF
